{
  "swagger": "2.0",
  "info": {
    "title": "Swagger Api",
    "description": "This is my first Demo swagger ",
    "version": "1.0",
    "license": {
      "name": "MIT",
      "url": "https://opensource.org/licenses/MIT"
    }
  }
}